<?xml version="1.0" encoding="UTF-8" standalone="no"?>
<!-- Created with Inkscape (http://www.inkscape.org/) -->

<svg
   xmlns:osb="http://www.openswatchbook.org/uri/2009/osb"
   xmlns:dc="http://purl.org/dc/elements/1.1/"
   xmlns:cc="http://creativecommons.org/ns#"
   xmlns:rdf="http://www.w3.org/1999/02/22-rdf-syntax-ns#"
   xmlns:svg="http://www.w3.org/2000/svg"
   xmlns="http://www.w3.org/2000/svg"
   xmlns:xlink="http://www.w3.org/1999/xlink"
   xmlns:sodipodi="http://sodipodi.sourceforge.net/DTD/sodipodi-0.dtd"
   xmlns:inkscape="http://www.inkscape.org/namespaces/inkscape"
   height="150"
   id="svg2064"
   version="1.0"
   width="150"
   x="0.0000000"
   y="0.0000000"
   inkscape:version="0.48.1 r9760"
   sodipodi:docname="delete.svg"
   inkscape:export-filename="/Users/ianfirth/Documents/xcode/hypOps_universal/Source_info/inkscape/exports/delete@2x.png"
   inkscape:export-xdpi="48"
   inkscape:export-ydpi="48">
  <sodipodi:namedview
     pagecolor="#486fc4"
     bordercolor="#666666"
     borderopacity="1"
     objecttolerance="10"
     gridtolerance="10"
     guidetolerance="10"
     inkscape:pageopacity="0.56470588"
     inkscape:pageshadow="2"
     inkscape:window-width="1188"
     inkscape:window-height="828"
     id="namedview3259"
     showgrid="false"
     inkscape:zoom="2.9066667"
     inkscape:cx="98.979307"
     inkscape:cy="63.75245"
     inkscape:window-x="213"
     inkscape:window-y="0"
     inkscape:window-maximized="0"
     inkscape:current-layer="svg2064"
     inkscape:snap-page="true"
     showguides="true"
     inkscape:guide-bbox="true" />
  <metadata
     id="metadata3252">
    <rdf:RDF>
      <cc:Work
         rdf:about="">
        <dc:title></dc:title>
        <dc:description />
        <dc:subject>
          <rdf:Bag>
            <rdf:li>symbol</rdf:li>
            <rdf:li>lock</rdf:li>
            <rdf:li>security</rdf:li>
            <rdf:li>secure</rdf:li>
            <rdf:li>padlock</rdf:li>
          </rdf:Bag>
        </dc:subject>
        <dc:publisher>
          <cc:Agent
             rdf:about="http://www.openclipart.org">
            <dc:title>A.J. Ashton</dc:title>
          </cc:Agent>
        </dc:publisher>
        <dc:creator>
          <cc:Agent>
            <dc:title>A.J. Ashton</dc:title>
          </cc:Agent>
        </dc:creator>
        <dc:rights>
          <cc:Agent>
            <dc:title>A.J. Ashton</dc:title>
          </cc:Agent>
        </dc:rights>
        <dc:date />
        <dc:format>image/svg+xml</dc:format>
        <dc:type
           rdf:resource="http://purl.org/dc/dcmitype/StillImage" />
        <cc:license
           rdf:resource="http://web.resource.org/cc/PublicDomain" />
        <dc:language>en</dc:language>
      </cc:Work>
      <cc:License
         rdf:about="http://web.resource.org/cc/PublicDomain">
        <cc:permits
           rdf:resource="http://web.resource.org/cc/Reproduction" />
        <cc:permits
           rdf:resource="http://web.resource.org/cc/Distribution" />
        <cc:permits
           rdf:resource="http://web.resource.org/cc/DerivativeWorks" />
      </cc:License>
    </rdf:RDF>
  </metadata>
  <defs
     id="defs3">
    <linearGradient
       id="linearGradient6890">
      <stop
         id="stop6892"
         offset="0"
         style="stop-color:#ffffff;stop-opacity:1;" />
      <stop
         style="stop-color:#acffff;stop-opacity:0.79487181;"
         offset="0.5"
         id="stop6898" />
      <stop
         style="stop-color:#ffffff;stop-opacity:0.65811968;"
         offset="0.875"
         id="stop6894" />
      <stop
         id="stop6896"
         offset="1"
         style="stop-color:#ffffff;stop-opacity:0;" />
    </linearGradient>
    <linearGradient
       id="linearGradient6853">
      <stop
         style="stop-color:#ffffff;stop-opacity:1;"
         offset="0"
         id="stop6855" />
      <stop
         id="stop6869"
         offset="0.5"
         style="stop-color:#ffffff;stop-opacity:0.49803922;" />
      <stop
         style="stop-color:#ffffff;stop-opacity:0;"
         offset="1"
         id="stop6857" />
    </linearGradient>
    <linearGradient
       id="linearGradient6847"
       osb:paint="solid">
      <stop
         style="stop-color:#ffffff;stop-opacity:1;"
         offset="0"
         id="stop6849" />
    </linearGradient>
    <linearGradient
       inkscape:collect="always"
       xlink:href="#linearGradient6890"
       id="linearGradient6859"
       x1="174.89816"
       y1="55.124435"
       x2="238.66199"
       y2="55.124435"
       gradientUnits="userSpaceOnUse"
       gradientTransform="matrix(1.2098374,0,0,1.1357073,-175.77506,-17.113815)" />
  </defs>
  <g
     inkscape:groupmode="layer"
     id="layer5"
     inkscape:label="top" />
  <g
     inkscape:groupmode="layer"
     id="layer4"
     inkscape:label="back" />
  <path
     style="fill:#ffffff;fill-opacity:0.99578091;stroke:none"
     d="m 35.718144,41.397566 0,78.024554 0.695052,0 c -0.04422,0.28217 -0.08177,0.566 -0.08177,0.85656 0,4.24112 4.832722,7.67008 10.79375,7.67008 0.55128,0 1.106379,-0.0212 1.635417,-0.0779 l 0,0.11674 56.462767,0 0,-0.0389 c 0.12547,0.002 0.24146,0 0.36797,0 5.85612,0 10.58931,-3.14177 10.58931,-7.0082 0,-0.52568 -0.0789,-1.02586 -0.24531,-1.51844 l 0.36797,0 0,-78.024554 -80.585155,0 z m 18.275781,7.124997 c 0.20427,-0.02108 0.403529,0 0.613281,0 2.988469,0 5.460931,2.172676 5.969271,5.061472 l 0.122591,0 0,59.219235 -0.204427,0 c 0.115788,0.47609 0.204427,0.9671 0.204427,1.47951 0,3.41092 -2.735947,6.15164 -6.091927,6.15164 -3.35598,0 -6.051042,-2.74072 -6.051042,-6.15164 0,-0.51305 0.08844,-1.00289 0.204427,-1.47951 l -0.204427,0 0,-59.219235 0.122591,0 c 0.472662,-2.686041 2.608895,-4.782143 5.315104,-5.061472 z m 22.977604,0 c 0.20427,-0.02108 0.40353,0 0.613282,0 2.988468,0 5.420045,2.172676 5.928385,5.061472 l 0.122591,0 0,59.219235 -0.204427,0 c 0.116049,0.47662 0.204427,0.96646 0.204427,1.47951 0,3.41092 -2.695062,6.15164 -6.051042,6.15164 -3.355979,0 -6.091927,-2.74072 -6.091927,-6.15164 0,-0.51241 0.0887,-1.00342 0.204427,-1.47951 l -0.204427,0 0,-59.219235 0.122591,0 c 0.472662,-2.686041 2.649781,-4.782143 5.35599,-5.061472 z m 22.037237,0 c 0.20427,-0.02108 0.40353,0 0.61328,0 2.988464,0 5.460944,2.172676 5.969284,5.061472 l 0.12259,0 0,59.219235 -0.20443,0 c 0.11579,0.47609 0.20443,0.9671 0.20443,1.47951 0,3.41092 -2.73595,6.15164 -6.091934,6.15164 -3.35598,0 -6.05104,-2.74072 -6.05104,-6.15164 0,-0.51305 0.0884,-1.00289 0.20442,-1.47951 l -0.20442,0 0,-59.219235 0.12259,0 c 0.47266,-2.686041 2.60889,-4.782143 5.3151,-5.061472 z"
     id="rect3077"
     inkscape:connector-curvature="0" />
  <path
     id="rect3937"
     style="fill:#ffffff;fill-opacity:0.99578091;stroke:none"
     d="m 47.420374,25.964899 61.665716,0 0,8.358393 -61.665716,0 z m -25.656534,4.736423 7.201839,0 0,4.736423 -7.201839,0 z m 45.370553,0.557226 c 0,2.923602 -10.065034,5.29365 -22.480908,5.29365 -12.415848,0 -22.480882,-2.370048 -22.480882,-5.29365 0,-2.923603 10.065034,-5.293651 22.480882,-5.293651 12.415874,0 22.480908,2.370048 22.480908,5.293651 z m -45.370553,2.228905 108.02753,0 0,3.621971 -108.02753,0 z m 100.82569,-1.393065 7.20184,0 0,4.736423 -7.20184,0 z m 7.20182,-0.696533 c 0,3.000539 -9.4512,5.432956 -21.10988,5.432956 -11.658644,0 -21.109863,-2.432417 -21.109863,-5.432956 0,-3.000538 9.451219,-5.432955 21.109863,-5.432955 11.65868,0 21.10988,2.432417 21.10988,5.432955 z"
     inkscape:connector-curvature="0" />
  <path
     inkscape:connector-curvature="0"
     d="m 71.850346,16.427752 14.734071,0 0,4.82215 -14.734071,0 z m -6.130222,2.732551 1.72076,0 0,2.732553 -1.72076,0 z M 76.5607,19.481781 c 0,1.686693 -2.404887,3.054028 -5.371454,3.054028 -2.966581,0 -5.371455,-1.367335 -5.371455,-3.054028 0,-1.686695 2.404874,-3.05403 5.371455,-3.05403 2.966567,0 5.371454,1.367335 5.371454,3.05403 z m -10.840576,1.285907 25.811502,0 0,2.089599 -25.811502,0 z m 24.090712,-0.803693 1.72078,0 0,2.732553 -1.72078,0 z m 1.72078,-0.401845 c 0,1.73108 -2.25823,3.134398 -5.043885,3.134398 -2.785638,0 -5.043873,-1.403318 -5.043873,-3.134398 0,-1.73108 2.258235,-3.134398 5.043873,-3.134398 2.785655,0 5.043885,1.403318 5.043885,3.134398 z"
     style="fill:#ffffff;fill-opacity:0.99578091;stroke:none"
     id="path3961" />
</svg>
