<?xml version="1.0" encoding="UTF-8" standalone="no"?>
<!-- Created with Inkscape (http://www.inkscape.org/) -->

<svg
   xmlns:dc="http://purl.org/dc/elements/1.1/"
   xmlns:cc="http://creativecommons.org/ns#"
   xmlns:rdf="http://www.w3.org/1999/02/22-rdf-syntax-ns#"
   xmlns:svg="http://www.w3.org/2000/svg"
   xmlns="http://www.w3.org/2000/svg"
   xmlns:xlink="http://www.w3.org/1999/xlink"
   xmlns:sodipodi="http://sodipodi.sourceforge.net/DTD/sodipodi-0.dtd"
   xmlns:inkscape="http://www.inkscape.org/namespaces/inkscape"
   width="39.024391"
   height="39.024391"
   id="svg4328"
   version="1.1"
   inkscape:version="0.48.1 r9760"
   sodipodi:docname="icon_base.svg"
   inkscape:export-filename="/Users/ianfirth/Documents/Xcode/hypOps_universal/Source_info/inkscape/exports/icon_base@2x.png"
   inkscape:export-xdpi="184.5"
   inkscape:export-ydpi="184.5">
  <defs
     id="defs4330">
    <linearGradient
       id="linearGradient5111">
      <stop
         style="stop-color:#a4c5dd;stop-opacity:1;"
         offset="0"
         id="stop5113" />
      <stop
         id="stop5119"
         offset="0.41179779"
         style="stop-color:#2c5ab3;stop-opacity:0.79084969;" />
      <stop
         style="stop-color:#1d4383;stop-opacity:1;"
         offset="0.78531939"
         id="stop5123" />
      <stop
         style="stop-color:#1d3968;stop-opacity:1;"
         offset="1"
         id="stop5115" />
    </linearGradient>
    <radialGradient
       inkscape:collect="always"
       xlink:href="#linearGradient5111"
       id="radialGradient5117"
       cx="453.69565"
       cy="203.92204"
       fx="453.69565"
       fy="203.92204"
       r="22.642857"
       gradientTransform="matrix(1.9608286,1.9080611,-1.0727043,1.0848028,-665.17836,-1080.3271)"
       gradientUnits="userSpaceOnUse" />
  </defs>
  <sodipodi:namedview
     id="base"
     pagecolor="#ffffff"
     bordercolor="#666666"
     borderopacity="1.0"
     inkscape:pageopacity="0.0"
     inkscape:pageshadow="2"
     inkscape:zoom="5.6"
     inkscape:cx="24.824976"
     inkscape:cy="8.5752614"
     inkscape:document-units="px"
     inkscape:current-layer="layer1"
     showgrid="false"
     inkscape:window-width="1203"
     inkscape:window-height="837"
     inkscape:window-x="291"
     inkscape:window-y="71"
     inkscape:window-maximized="0"
     fit-margin-top="0"
     fit-margin-left="0"
     fit-margin-right="0"
     fit-margin-bottom="0"
     inkscape:showpageshadow="false" />
  <metadata
     id="metadata4333">
    <rdf:RDF>
      <cc:Work
         rdf:about="">
        <dc:format>image/svg+xml</dc:format>
        <dc:type
           rdf:resource="http://purl.org/dc/dcmitype/StillImage" />
        <dc:title></dc:title>
      </cc:Work>
    </rdf:RDF>
  </metadata>
  <g
     inkscape:label="Layer 1"
     inkscape:groupmode="layer"
     id="layer1"
     transform="translate(-7.0531363,-5.7724609)">
    <rect
       style="fill:url(#radialGradient5117);fill-opacity:1;fill-rule:evenodd;stroke:#223498;stroke-width:0.79183656;stroke-linecap:butt;stroke-linejoin:miter;stroke-opacity:0.68888891"
       id="rect4601"
       width="35.208164"
       height="35.208164"
       x="7.6805744"
       y="8.9612503"
       ry="7.6049628"
       transform="matrix(0,1,1,0,0,0)"
       inkscape:export-filename="/Users/ianfirth/Dropbox/mac/inkscape/exports/icon_base@2x.png"
       inkscape:export-xdpi="184.49989"
       inkscape:export-ydpi="184.49989" />
    <rect
       style="fill:none;stroke:none"
       id="rect5127"
       width="39.024391"
       height="39.024391"
       x="5.7724609"
       y="7.0531363"
       ry="0"
       transform="matrix(0,1,1,0,0,0)"
       inkscape:export-filename="/Users/ianfirth/Dropbox/mac/inkscape/exports/icon_base@2x.png"
       inkscape:export-xdpi="184.49989"
       inkscape:export-ydpi="184.49989" />
  </g>
</svg>
