<?xml version="1.0" encoding="UTF-8" standalone="no"?>
<!-- Created with Inkscape (http://www.inkscape.org/) -->

<svg
   xmlns:osb="http://www.openswatchbook.org/uri/2009/osb"
   xmlns:dc="http://purl.org/dc/elements/1.1/"
   xmlns:cc="http://creativecommons.org/ns#"
   xmlns:rdf="http://www.w3.org/1999/02/22-rdf-syntax-ns#"
   xmlns:svg="http://www.w3.org/2000/svg"
   xmlns="http://www.w3.org/2000/svg"
   xmlns:xlink="http://www.w3.org/1999/xlink"
   xmlns:sodipodi="http://sodipodi.sourceforge.net/DTD/sodipodi-0.dtd"
   xmlns:inkscape="http://www.inkscape.org/namespaces/inkscape"
   height="150"
   id="svg2064"
   version="1.0"
   width="150"
   x="0.0000000"
   y="0.0000000"
   inkscape:version="0.48.1 r9760"
   sodipodi:docname="snapshot.svg"
   inkscape:export-filename="/Users/ianfirth/Documents/xcode/hypOps_universal/Source_info/inkscape/exports/snapshot@2x.png"
   inkscape:export-xdpi="48"
   inkscape:export-ydpi="48">
  <sodipodi:namedview
     pagecolor="#486fc4"
     bordercolor="#666666"
     borderopacity="1"
     objecttolerance="10"
     gridtolerance="10"
     guidetolerance="10"
     inkscape:pageopacity="0.57254902"
     inkscape:pageshadow="2"
     inkscape:window-width="1188"
     inkscape:window-height="828"
     id="namedview3259"
     showgrid="false"
     inkscape:zoom="2.9066667"
     inkscape:cx="68.465303"
     inkscape:cy="91.275385"
     inkscape:window-x="13"
     inkscape:window-y="44"
     inkscape:window-maximized="0"
     inkscape:current-layer="svg2064"
     inkscape:snap-page="true" />
  <metadata
     id="metadata3252">
    <rdf:RDF>
      <cc:Work
         rdf:about="">
        <dc:title></dc:title>
        <dc:description />
        <dc:subject>
          <rdf:Bag>
            <rdf:li>symbol</rdf:li>
            <rdf:li>lock</rdf:li>
            <rdf:li>security</rdf:li>
            <rdf:li>secure</rdf:li>
            <rdf:li>padlock</rdf:li>
          </rdf:Bag>
        </dc:subject>
        <dc:publisher>
          <cc:Agent
             rdf:about="http://www.openclipart.org">
            <dc:title>A.J. Ashton</dc:title>
          </cc:Agent>
        </dc:publisher>
        <dc:creator>
          <cc:Agent>
            <dc:title>A.J. Ashton</dc:title>
          </cc:Agent>
        </dc:creator>
        <dc:rights>
          <cc:Agent>
            <dc:title>A.J. Ashton</dc:title>
          </cc:Agent>
        </dc:rights>
        <dc:date />
        <dc:format>image/svg+xml</dc:format>
        <dc:type
           rdf:resource="http://purl.org/dc/dcmitype/StillImage" />
        <cc:license
           rdf:resource="http://web.resource.org/cc/PublicDomain" />
        <dc:language>en</dc:language>
      </cc:Work>
      <cc:License
         rdf:about="http://web.resource.org/cc/PublicDomain">
        <cc:permits
           rdf:resource="http://web.resource.org/cc/Reproduction" />
        <cc:permits
           rdf:resource="http://web.resource.org/cc/Distribution" />
        <cc:permits
           rdf:resource="http://web.resource.org/cc/DerivativeWorks" />
      </cc:License>
    </rdf:RDF>
  </metadata>
  <defs
     id="defs3">
    <linearGradient
       id="linearGradient6890">
      <stop
         id="stop6892"
         offset="0"
         style="stop-color:#ffffff;stop-opacity:1;" />
      <stop
         style="stop-color:#acffff;stop-opacity:0.79487181;"
         offset="0.5"
         id="stop6898" />
      <stop
         style="stop-color:#ffffff;stop-opacity:0.65811968;"
         offset="0.875"
         id="stop6894" />
      <stop
         id="stop6896"
         offset="1"
         style="stop-color:#ffffff;stop-opacity:0;" />
    </linearGradient>
    <linearGradient
       id="linearGradient6853">
      <stop
         style="stop-color:#ffffff;stop-opacity:1;"
         offset="0"
         id="stop6855" />
      <stop
         id="stop6869"
         offset="0.5"
         style="stop-color:#ffffff;stop-opacity:0.49803922;" />
      <stop
         style="stop-color:#ffffff;stop-opacity:0;"
         offset="1"
         id="stop6857" />
    </linearGradient>
    <linearGradient
       id="linearGradient6847"
       osb:paint="solid">
      <stop
         style="stop-color:#ffffff;stop-opacity:1;"
         offset="0"
         id="stop6849" />
    </linearGradient>
    <linearGradient
       inkscape:collect="always"
       xlink:href="#linearGradient6890"
       id="linearGradient6859"
       x1="174.89816"
       y1="55.124435"
       x2="238.66199"
       y2="55.124435"
       gradientUnits="userSpaceOnUse"
       gradientTransform="matrix(1.2098374,0,0,1.1357073,-175.77506,-17.113815)" />
    <filter
       inkscape:collect="always"
       id="filter3776">
      <feGaussianBlur
         inkscape:collect="always"
         stdDeviation="0.74242186"
         id="feGaussianBlur3778" />
    </filter>
  </defs>
  <g
     inkscape:groupmode="layer"
     id="layer5"
     inkscape:label="top" />
  <g
     inkscape:groupmode="layer"
     id="layer4"
     inkscape:label="back" />
  <path
     style="fill:#ffffff;fill-opacity:1;stroke:#ffffff;stroke-width:0.45800835;stroke-linecap:butt;stroke-linejoin:miter;stroke-miterlimit:4;stroke-opacity:1;stroke-dasharray:none"
     d="m 25.905691,42.842905 0,73.394615 100.001399,0 0,-73.394615 -100.001399,0 z m 69.404899,8.720153 23.42675,0 0,18.207359 -23.42675,0 0,-18.207359 z M 61.337619,62.503622 c 13.496352,0 24.427187,10.760781 24.427187,24.06116 0,13.300382 -10.930835,24.101528 -24.427187,24.101528 -13.496354,0 -24.427187,-10.801146 -24.427187,-24.101528 0,-13.300379 10.930833,-24.06116 24.427187,-24.06116 z"
     id="rect3025"
     inkscape:export-filename="/Users/ianfirth/Documents/xcode/hypOps_universal/Source_info/inkscape/exports/snapshot@2x.png"
     inkscape:export-xdpi="56.590382"
     inkscape:export-ydpi="56.590382"
     inkscape:connector-curvature="0" />
  <path
     sodipodi:type="star"
     style="fill:#ffff1d;fill-opacity:0.99578091;stroke:#ffff28;stroke-width:2.97199988;stroke-linecap:butt;stroke-linejoin:miter;stroke-miterlimit:4;stroke-opacity:0.46835447;stroke-dasharray:none;filter:url(#filter3776)"
     id="path3830"
     sodipodi:sides="10"
     sodipodi:cx="19.266054"
     sodipodi:cy="-61.582565"
     sodipodi:r1="18.517359"
     sodipodi:r2="9.2586784"
     sodipodi:arg1="0.6137701"
     sodipodi:arg2="0.92792937"
     inkscape:flatsided="false"
     inkscape:rounded="0"
     inkscape:randomized="0"
     d="m 34.40367,-50.917427 -9.587107,-3.254674 0.427268,10.115481 -5.843082,-8.268247 -5.600064,8.434738 0.132801,-10.123629 -9.4883615,3.532212 6.0579575,-8.112131 -9.752427,-2.719499 9.669182,-3.002073 -6.2913983,-7.932455 9.5871063,3.254675 -0.427268,-10.115482 5.843083,8.268247 5.600063,-8.434738 -0.1328,10.12363 9.488361,-3.532212 -6.057958,8.11213 9.752427,2.7195 -9.669181,3.002073 z"
     inkscape:transform-center-x="0.34388225"
     inkscape:transform-center-y="0.84398455"
     transform="matrix(1.405157,0,0,1.2472271,67.817705,125.23896)"
     inkscape:export-filename="/Users/ianfirth/Documents/xcode/hypOps_universal/Source_info/inkscape/exports/snapshot@2x.png"
     inkscape:export-xdpi="56.590382"
     inkscape:export-ydpi="56.590382" />
</svg>
