<?xml version="1.0" encoding="UTF-8" standalone="no"?>
<!-- Created with Inkscape (http://www.inkscape.org/) -->

<svg
   xmlns:dc="http://purl.org/dc/elements/1.1/"
   xmlns:cc="http://creativecommons.org/ns#"
   xmlns:rdf="http://www.w3.org/1999/02/22-rdf-syntax-ns#"
   xmlns:svg="http://www.w3.org/2000/svg"
   xmlns="http://www.w3.org/2000/svg"
   xmlns:xlink="http://www.w3.org/1999/xlink"
   xmlns:sodipodi="http://sodipodi.sourceforge.net/DTD/sodipodi-0.dtd"
   xmlns:inkscape="http://www.inkscape.org/namespaces/inkscape"
   width="100"
   height="100"
   id="svg2"
   version="1.1"
   inkscape:version="0.48.2 r9819"
   sodipodi:docname="vm_overlays.svg">
  <defs
     id="defs4">
    <linearGradient
       id="linearGradient4020">
      <stop
         id="stop4022"
         offset="0"
         style="stop-color:#122bf6;stop-opacity:1;" />
      <stop
         id="stop4024"
         offset="1"
         style="stop-color:#007de1;stop-opacity:1;" />
    </linearGradient>
    <linearGradient
       id="linearGradient3897">
      <stop
         id="stop3899"
         offset="0"
         style="stop-color:#b60000;stop-opacity:1;" />
      <stop
         id="stop3901"
         offset="1"
         style="stop-color:#fb0000;stop-opacity:0.97093022;" />
    </linearGradient>
    <linearGradient
       id="linearGradient3889">
      <stop
         style="stop-color:#38fc18;stop-opacity:1;"
         offset="0"
         id="stop3891" />
      <stop
         style="stop-color:#38fc18;stop-opacity:0;"
         offset="1"
         id="stop3893" />
    </linearGradient>
    <linearGradient
       inkscape:collect="always"
       id="linearGradient3859">
      <stop
         style="stop-color:#38af1a;stop-opacity:1;"
         offset="0"
         id="stop3861" />
      <stop
         style="stop-color:#38fc18;stop-opacity:1"
         offset="1"
         id="stop3863" />
    </linearGradient>
    <linearGradient
       id="linearGradient3827">
      <stop
         style="stop-color:#040e01;stop-opacity:1;"
         offset="0"
         id="stop3829" />
      <stop
         style="stop-color:#382521;stop-opacity:0.08139535;"
         offset="1"
         id="stop3831" />
    </linearGradient>
    <linearGradient
       inkscape:collect="always"
       id="linearGradient3785">
      <stop
         style="stop-color:#ffb118;stop-opacity:1"
         offset="0"
         id="stop3787" />
      <stop
         style="stop-color:#ffd70e;stop-opacity:1"
         offset="1"
         id="stop3789" />
    </linearGradient>
    <linearGradient
       id="linearGradient3771">
      <stop
         id="stop3773"
         offset="0"
         style="stop-color:#000000;stop-opacity:1;" />
      <stop
         id="stop3775"
         offset="1"
         style="stop-color:#74716f;stop-opacity:0.98837209;" />
    </linearGradient>
    <linearGradient
       id="linearGradient3755">
      <stop
         style="stop-color:#dbdbdb;stop-opacity:1;"
         offset="0"
         id="stop3757" />
      <stop
         style="stop-color:#929292;stop-opacity:1;"
         offset="1"
         id="stop3759" />
    </linearGradient>
    <radialGradient
       inkscape:collect="always"
       xlink:href="#linearGradient3755"
       id="radialGradient3761"
       cx="256.29443"
       cy="402.04099"
       fx="256.29443"
       fy="402.04099"
       r="70.199997"
       gradientTransform="matrix(0.67019275,1.9097943,-2.674924,0.4003432,1159.9568,-231.96285)"
       gradientUnits="userSpaceOnUse" />
    <radialGradient
       inkscape:collect="always"
       xlink:href="#linearGradient3771"
       id="radialGradient3769"
       cx="288.92899"
       cy="431.94269"
       fx="288.92899"
       fy="431.94269"
       r="73.934959"
       gradientTransform="matrix(0.3638823,1.0706008,-1.5396669,0.22318651,851.85807,29.114065)"
       gradientUnits="userSpaceOnUse" />
    <linearGradient
       inkscape:collect="always"
       xlink:href="#linearGradient3785"
       id="linearGradient3791"
       x1="132.85715"
       y1="450.75504"
       x2="144.64287"
       y2="472.54074"
       gradientUnits="userSpaceOnUse" />
    <filter
       inkscape:collect="always"
       id="filter3813"
       x="-0.1487288"
       width="1.2974576"
       y="-0.055992022"
       height="1.111984"
       color-interpolation-filters="sRGB">
      <feGaussianBlur
         inkscape:collect="always"
         stdDeviation="0.70823246"
         id="feGaussianBlur3815" />
    </filter>
    <linearGradient
       inkscape:collect="always"
       xlink:href="#linearGradient3785"
       id="linearGradient3819"
       gradientUnits="userSpaceOnUse"
       x1="132.85715"
       y1="450.75504"
       x2="144.64287"
       y2="472.54074" />
    <radialGradient
       inkscape:collect="always"
       xlink:href="#linearGradient3827"
       id="radialGradient3833"
       cx="290.01447"
       cy="442.06134"
       fx="290.01447"
       fy="442.06134"
       r="73.934959"
       gradientTransform="matrix(0.86376597,1.8650778,-3.214506,0.634923,1462.0307,-394.38509)"
       gradientUnits="userSpaceOnUse" />
    <filter
       inkscape:collect="always"
       id="filter3839"
       color-interpolation-filters="sRGB">
      <feGaussianBlur
         inkscape:collect="always"
         stdDeviation="2.3353986"
         id="feGaussianBlur3841" />
    </filter>
    <radialGradient
       inkscape:collect="always"
       xlink:href="#linearGradient3827"
       id="radialGradient3847"
       gradientUnits="userSpaceOnUse"
       gradientTransform="matrix(0.86376597,1.8650778,-3.214506,0.634923,1462.0307,-394.38509)"
       cx="290.01447"
       cy="442.06134"
       fx="290.01447"
       fy="442.06134"
       r="73.934959" />
    <radialGradient
       inkscape:collect="always"
       xlink:href="#linearGradient3771"
       id="radialGradient3849"
       gradientUnits="userSpaceOnUse"
       gradientTransform="matrix(0.3638823,1.0706008,-1.5396669,0.22318651,851.85807,29.114065)"
       cx="288.92899"
       cy="431.94269"
       fx="288.92899"
       fy="431.94269"
       r="73.934959" />
    <radialGradient
       inkscape:collect="always"
       xlink:href="#linearGradient3755"
       id="radialGradient3851"
       gradientUnits="userSpaceOnUse"
       gradientTransform="matrix(0.67019275,1.9097943,-2.674924,0.4003432,1159.9568,-231.96285)"
       cx="256.29443"
       cy="402.04099"
       fx="256.29443"
       fy="402.04099"
       r="70.199997" />
    <linearGradient
       inkscape:collect="always"
       xlink:href="#linearGradient3859"
       id="linearGradient3867"
       x1="151.18303"
       y1="489.15179"
       x2="194.27678"
       y2="520.22321"
       gradientUnits="userSpaceOnUse"
       gradientTransform="matrix(0.57141119,0,0,0.57141119,83.774936,228.5262)" />
    <filter
       inkscape:collect="always"
       id="filter3873"
       color-interpolation-filters="sRGB">
      <feGaussianBlur
         inkscape:collect="always"
         stdDeviation="0.66510847"
         id="feGaussianBlur3875" />
    </filter>
    <radialGradient
       inkscape:collect="always"
       xlink:href="#linearGradient3827"
       id="radialGradient3881"
       gradientUnits="userSpaceOnUse"
       gradientTransform="matrix(0.86376597,1.8650778,-3.214506,0.634923,1462.0307,-394.38509)"
       cx="290.01447"
       cy="442.06134"
       fx="290.01447"
       fy="442.06134"
       r="73.934959" />
    <radialGradient
       inkscape:collect="always"
       xlink:href="#linearGradient3771"
       id="radialGradient3883"
       gradientUnits="userSpaceOnUse"
       gradientTransform="matrix(0.3638823,1.0706008,-1.5396669,0.22318651,851.85807,29.114065)"
       cx="288.92899"
       cy="431.94269"
       fx="288.92899"
       fy="431.94269"
       r="73.934959" />
    <radialGradient
       inkscape:collect="always"
       xlink:href="#linearGradient3755"
       id="radialGradient3885"
       gradientUnits="userSpaceOnUse"
       gradientTransform="matrix(0.67019275,1.9097943,-2.674924,0.4003432,1159.9568,-231.96285)"
       cx="256.29443"
       cy="402.04099"
       fx="256.29443"
       fy="402.04099"
       r="70.199997" />
    <linearGradient
       inkscape:collect="always"
       xlink:href="#linearGradient3897"
       id="linearGradient3895"
       x1="152.5"
       y1="499.50504"
       x2="186.78571"
       y2="530.21936"
       gradientUnits="userSpaceOnUse"
       gradientTransform="matrix(0.41441441,0,0,0.41441441,95.842985,323.47785)" />
    <filter
       inkscape:collect="always"
       id="filter3911"
       x="-0.13575502"
       width="1.27151"
       y="-0.13952599"
       height="1.279052"
       color-interpolation-filters="sRGB">
      <feGaussianBlur
         inkscape:collect="always"
         stdDeviation="0.92927546"
         id="feGaussianBlur3913" />
    </filter>
    <radialGradient
       inkscape:collect="always"
       xlink:href="#linearGradient3827"
       id="radialGradient3919"
       gradientUnits="userSpaceOnUse"
       gradientTransform="matrix(0.86376597,1.8650778,-3.214506,0.634923,1462.0307,-394.38509)"
       cx="290.01447"
       cy="442.06134"
       fx="290.01447"
       fy="442.06134"
       r="73.934959" />
    <radialGradient
       inkscape:collect="always"
       xlink:href="#linearGradient3771"
       id="radialGradient3921"
       gradientUnits="userSpaceOnUse"
       gradientTransform="matrix(0.3638823,1.0706008,-1.5396669,0.22318651,851.85807,29.114065)"
       cx="288.92899"
       cy="431.94269"
       fx="288.92899"
       fy="431.94269"
       r="73.934959" />
    <radialGradient
       inkscape:collect="always"
       xlink:href="#linearGradient3755"
       id="radialGradient3923"
       gradientUnits="userSpaceOnUse"
       gradientTransform="matrix(0.67019275,1.9097943,-2.674924,0.4003432,1159.9568,-231.96285)"
       cx="256.29443"
       cy="402.04099"
       fx="256.29443"
       fy="402.04099"
       r="70.199997" />
    <radialGradient
       inkscape:collect="always"
       xlink:href="#linearGradient3827"
       id="radialGradient4010"
       gradientUnits="userSpaceOnUse"
       gradientTransform="matrix(0.86376597,1.8650778,-3.214506,0.634923,1462.0307,-394.38509)"
       cx="290.01447"
       cy="442.06134"
       fx="290.01447"
       fy="442.06134"
       r="73.934959" />
    <radialGradient
       inkscape:collect="always"
       xlink:href="#linearGradient3771"
       id="radialGradient4012"
       gradientUnits="userSpaceOnUse"
       gradientTransform="matrix(0.3638823,1.0706008,-1.5396669,0.22318651,851.85807,29.114065)"
       cx="288.92899"
       cy="431.94269"
       fx="288.92899"
       fy="431.94269"
       r="73.934959" />
    <radialGradient
       inkscape:collect="always"
       xlink:href="#linearGradient3755"
       id="radialGradient4014"
       gradientUnits="userSpaceOnUse"
       gradientTransform="matrix(0.67019275,1.9097943,-2.674924,0.4003432,1159.9568,-231.96285)"
       cx="256.29443"
       cy="402.04099"
       fx="256.29443"
       fy="402.04099"
       r="70.199997" />
    <linearGradient
       inkscape:collect="always"
       xlink:href="#linearGradient4020"
       id="linearGradient4016"
       gradientUnits="userSpaceOnUse"
       x1="132.85715"
       y1="450.75504"
       x2="144.64287"
       y2="472.54074" />
    <linearGradient
       inkscape:collect="always"
       xlink:href="#linearGradient4020"
       id="linearGradient4018"
       gradientUnits="userSpaceOnUse"
       x1="132.85715"
       y1="450.75504"
       x2="144.64287"
       y2="472.54074" />
  </defs>
  <sodipodi:namedview
     id="base"
     pagecolor="#ffffff"
     bordercolor="#666666"
     borderopacity="1.0"
     inkscape:pageopacity="0.0"
     inkscape:pageshadow="2"
     inkscape:zoom="0.24748737"
     inkscape:cx="309.83433"
     inkscape:cy="511.13388"
     inkscape:document-units="px"
     inkscape:current-layer="layer1"
     showgrid="false"
     inkscape:window-width="1440"
     inkscape:window-height="856"
     inkscape:window-x="229"
     inkscape:window-y="173"
     inkscape:window-maximized="0" />
  <metadata
     id="metadata7">
    <rdf:RDF>
      <cc:Work
         rdf:about="">
        <dc:format>image/svg+xml</dc:format>
        <dc:type
           rdf:resource="http://purl.org/dc/dcmitype/StillImage" />
        <dc:title></dc:title>
      </cc:Work>
    </rdf:RDF>
  </metadata>
  <g
     inkscape:label="Layer 1"
     inkscape:groupmode="layer"
     id="layer1"
     transform="translate(0,-952.36214)">
    <path
       sodipodi:type="arc"
       style="fill:none;stroke:url(#radialGradient3847);stroke-width:12.96367073;stroke-linecap:butt;stroke-linejoin:round;stroke-miterlimit:4;stroke-opacity:1;stroke-dasharray:none;filter:url(#filter3839)"
       id="path3843"
       sodipodi:cx="315.71429"
       sodipodi:cy="449.50504"
       sodipodi:rx="70"
       sodipodi:ry="45.714287"
       d="m 385.71429,449.50504 a 70,45.714287 0 1 1 -140,0 70,45.714287 0 1 1 140,0 z"
       transform="matrix(0.57839485,0,0,0.86277436,-130.93608,615.36468)"
       inkscape:export-filename="/Users/ianfirth/Documents/Xcode/hypOps_universal/Source_info/inkscape/exports/start_vm@2x.png"
       inkscape:export-xdpi="319.75113"
       inkscape:export-ydpi="319.75113" />
    <path
       transform="matrix(0.63253354,0,0,0.94353141,-152.4028,574.09255)"
       d="m 385.71429,449.50504 a 70,45.714287 0 1 1 -140,0 70,45.714287 0 1 1 140,0 z"
       sodipodi:ry="45.714287"
       sodipodi:rx="70"
       sodipodi:cy="449.50504"
       sodipodi:cx="315.71429"
       id="path3845"
       style="fill:url(#radialGradient3849);fill-opacity:1;fill-rule:evenodd;stroke:url(#radialGradient3851);stroke-width:7.86991262;stroke-linecap:butt;stroke-linejoin:round;stroke-miterlimit:4;stroke-opacity:1;stroke-dasharray:none"
       sodipodi:type="arc"
       inkscape:export-filename="/Users/ianfirth/Documents/Xcode/hypOps_universal/Source_info/inkscape/exports/start_vm@2x.png"
       inkscape:export-xdpi="319.75113"
       inkscape:export-ydpi="319.75113" />
    <path
       style="font-size:medium;font-style:normal;font-variant:normal;font-weight:normal;font-stretch:normal;text-indent:0;text-align:start;text-decoration:none;line-height:normal;letter-spacing:normal;word-spacing:normal;text-transform:none;direction:ltr;block-progression:tb;writing-mode:lr-tb;text-anchor:start;baseline-shift:baseline;color:#000000;fill:url(#linearGradient3867);fill-opacity:1;stroke:none;stroke-width:4.0710001;marker:none;visibility:visible;display:inline;overflow:visible;filter:url(#filter3873);enable-background:accumulate;font-family:Sans;-inkscape-font-specification:Sans"
       d="m 169.75446,502.73214 0,23.66254 20.95089,-10.96395 z"
       id="rect3853"
       inkscape:connector-curvature="0"
       sodipodi:nodetypes="cccc"
       transform="matrix(1.7497869,0,0,1.7045584,-262.74414,120.5102)"
       inkscape:export-filename="/Users/ianfirth/Documents/Xcode/hypOps_universal/Source_info/inkscape/exports/start_vm@2x.png"
       inkscape:export-xdpi="319.75113"
       inkscape:export-ydpi="319.75113" />
  </g>
</svg>
